<?xml version="1.0" encoding="UTF-8" standalone="no"?>
<!-- Created with Inkscape (http://www.inkscape.org/) -->

<svg
   width="512"
   height="512"
   viewBox="0 0 512 512"
   version="1.1"
   id="svg5"
   xmlns="http://www.w3.org/2000/svg"
   xmlns:svg="http://www.w3.org/2000/svg">
  <defs
     id="defs2" />
  <g
     id="layer1">
    <path
       style="fill:#000000;fill-rule:evenodd;stroke:#000000"
       id="path32"
       d="m 239.562,269.73727 c -13.90731,-8.65939 4.81131,-23.01901 14.39248,-23.11485 25.96437,-0.25974 37.28763,30.44151 31.83723,51.89983 -9.74948,38.38388 -54.82461,53.09721 -89.40717,40.5596 -50.75129,-18.39945 -69.27588,-79.50254 -49.28198,-126.91452 26.64873,-63.19271 104.28041,-85.60583 164.42186,-58.00435 75.68189,34.73365 102.01283,129.10476 66.72673,201.92921 C 335.51495,444.29235 224.29609,474.5564 138.8146,431.54128 38.077621,380.84946 3.8711723,252.71978 54.643128,154.59739 113.26136,41.311207 258.34186,3.1561763 369.09437,61.703548 494.93841,128.22879 537.04637,290.28707 470.71058,413.66213 396.29186,552.0703 217.23672,598.13436 81.244655,524.00072 -69.73231,441.69832 -119.75488,245.63234 -37.816306,97.027447 -3.3585293,34.534364 51.510948,-15.580607 116.50448,-44.921749"
       transform="matrix(0.78571438,0,0,0.82620137,59.855334,37.759328)" />
    <path
       style="fill:#000000;fill-rule:evenodd;stroke:#000000"
       id="path36"
       d="m 239.562,269.73727 c 9.19913,15.24843 -16.01605,19.92328 -25.34388,15.28957 -25.27787,-12.55709 -21.1004,-47.88105 -5.23525,-65.97733 28.37903,-32.36999 79.29827,-24.38534 106.61077,4.81908 40.08219,42.85865 27.88235,111.18313 -14.8734,147.24421 C 243.73356,419.17654 157.48081,402.58939 112.84259,346.18508 56.669955,275.20602 77.720065,170.80631 147.82463,117.67399 232.73064,53.323633 355.38977,78.875331 416.96916,162.71034 489.53834,261.507 459.46295,402.49123 361.87849,472.48832 249.21337,553.30273 89.862265,518.68991 11.467072,407.34333 -77.610529,280.82427 -38.451169,103.07801 86.666379,16.298469 227.02936,-81.055064 423.19081,-37.34284 518.34468,101.55209 623.98351,255.7518 575.71385,470.34318 423.03674,573.86384"
       transform="matrix(0.78571438,0,0,0.82620137,59.855334,37.759328)" />
    <path
       style="fill:#ff6600;stroke-width:0.586483"
       d=""
       id="path550" />
    <path
       style="fill:#ff0000;stroke-width:0.586483"
       d=""
       id="path589" />
  </g>
</svg>
